{
  "formatVersion": 1,
  "database": {
    "version": 1,
    "identityHash": "e0a614464263ae8510aa424b573d56a5",
    "entities": [
      {
        "tableName": "FileDbEntity",
        "createSql": "CREATE TABLE IF NOT EXISTS `${TABLE_NAME}` (`created` INTEGER NOT NULL, `lastModified` INTEGER NOT NULL, `filepath` TEXT NOT NULL, PRIMARY KEY(`created`))",
        "fields": [
          {
            "fieldPath": "created",
            "columnName": "created",
            "affinity": "INTEGER",
            "notNull": true
          },
          {
            "fieldPath": "lastModified",
            "columnName": "lastModified",
            "affinity": "INTEGER",
            "notNull": true
          },
          {
            "fieldPath": "filepath",
            "columnName": "filepath",
            "affinity": "TEXT",
            "notNull": true
          }
        ],
        "primaryKey": {
          "columnNames": [
            "created"
          ],
          "autoGenerate": false
        },
        "indices": [],
        "foreignKeys": []
      }
    ],
    "views": [],
    "setupQueries": [
      "CREATE TABLE IF NOT EXISTS room_master_table (id INTEGER PRIMARY KEY,identity_hash TEXT)",
      "INSERT OR REPLACE INTO room_master_table (id,identity_hash) VALUES(42, 'e0a614464263ae8510aa424b573d56a5')"
    ]
  }
}